{
    "CurrentlyLoadingLayer": -1,
    "Guid": "{ac12fad7-8ee1-4b53-b356-50fde8384188}",
    "LastSuccessfullyUploadedLayer": 254,
    "LayerCount": 255,
    "LayerThickness_mm": 0.10000000149011612,
    "MaterialCode": "FLGPWH02",
    "MaterialName": "White",
    "Name": "Small Rook",
    "PreFormBuildType": "testing",
    "PreFormGitCommit": "118294bf5cefcee1dcb99d422d0685be00cacae5",
    "PreFormOperatingSystem": "mac",
    "PreFormVersionNumber": "0",
    "Status": "FINISHED",
    "TotalPrintTimeEstimated_ms": 18077691.273650996,
    "UploadFinishedDate": "",
    "UploadInterface": "ETHERNET",
    "UploadProgress_normalized": 1,
    "UploadStartDate": "2017-03-03T21:21:40",
    "Volume_mL": 28.07136036400797
}
